<?xml version="1.0" standalone="no"?>
<!DOCTYPE svg PUBLIC "-//W3C//DTD SVG 20010904//EN"
 "http://www.w3.org/TR/2001/REC-SVG-20010904/DTD/svg10.dtd">
<svg version="1.0" xmlns="http://www.w3.org/2000/svg"
 width="450.000000pt" height="150.000000pt" viewBox="0 0 450.000000 150.000000"
 preserveAspectRatio="xMidYMid meet">
<g transform="translate(0.000000,150.000000) scale(0.100000,-0.100000)"
fill="#049cdb" stroke="none">
<path d="M71 1487 c-13 -6 -34 -25 -45 -40 -21 -28 -21 -36 -24 -691 l-2 -662
23 -35 c12 -18 34 -39 47 -46 37 -19 4323 -19 4360 0 13 7 35 28 47 46 l23 34
0 657 0 657 -23 34 c-12 18 -34 39 -47 46 -36 18 -4324 19 -4359 0z m1439
-772 l0 -405 -55 0 -55 0 0 405 0 405 55 0 55 0 0 -405z m1340 6 l0 -399 -68
-12 c-99 -18 -247 -9 -297 17 -47 25 -86 64 -111 113 -25 50 -31 181 -10 252
39 135 182 218 329 190 l47 -9 0 123 0 124 55 0 55 0 0 -399z m-2097 204 c-3
-63 -4 -115 -2 -115 2 0 51 16 109 34 76 25 107 31 111 23 14 -25 47 -157 41
-161 -4 -2 -52 -18 -107 -36 -55 -18 -102 -34 -104 -36 -2 -1 23 -44 54 -94
33 -51 54 -94 49 -99 -42 -37 -103 -81 -110 -81 -5 0 -33 43 -62 96 l-54 95
-42 -58 c-23 -32 -55 -77 -70 -100 l-29 -43 -47 40 c-80 67 -80 59 -11 155 34
47 62 91 64 96 1 6 -43 29 -98 51 -55 22 -101 41 -102 42 -2 1 9 37 23 78 l25
76 77 -28 c42 -16 90 -33 105 -39 16 -6 30 -11 33 -11 2 0 4 52 4 115 l0 115
74 0 74 0 -5 -115z m1432 -54 c50 -22 92 -71 100 -114 3 -18 5 -122 3 -232
l-3 -199 -75 -14 c-150 -26 -289 3 -329 69 -40 65 -36 155 10 213 39 49 94 69
202 74 l97 4 -6 37 c-3 20 -17 47 -30 61 -22 22 -32 25 -102 25 -42 0 -90 -2
-107 -5 -27 -5 -30 -2 -39 32 -5 21 -7 41 -3 44 27 28 225 31 282 5z m1665 4
c16 -8 38 -29 50 -46 l23 -31 27 30 c45 49 85 65 156 60 76 -5 109 -25 142
-88 21 -42 22 -56 22 -268 l0 -223 -52 3 -53 3 -5 212 c-5 207 -6 212 -29 237
-53 56 -158 20 -181 -62 -5 -20 -10 -117 -10 -214 l0 -178 -55 0 -55 0 0 203
c0 172 -3 207 -18 237 -23 47 -66 59 -118 34 -70 -34 -78 -63 -84 -279 l-5
-190 -52 -3 -53 -3 0 285 0 286 45 0 c44 0 45 0 51 -39 l6 -40 24 28 c13 16
38 36 56 44 41 21 130 22 168 2z m-2010 0 c0 -3 -38 -61 -85 -129 -47 -68 -85
-129 -85 -135 0 -7 42 -71 93 -144 51 -73 96 -138 101 -144 5 -10 -7 -13 -53
-13 l-60 0 -104 146 -105 146 91 139 90 139 59 0 c32 0 58 -2 58 -5z m1211
-177 c0 -111 5 -199 13 -223 17 -58 62 -85 142 -85 102 0 94 -21 94 252 l0
239 53 -3 52 -3 0 -275 0 -275 -50 -11 c-64 -15 -219 -17 -267 -4 -49 14 -93
52 -121 104 -20 37 -22 58 -25 239 -2 109 -1 204 2 212 4 11 21 15 56 15 l50
0 1 -182z"/>
<path d="M2595 791 c-82 -20 -129 -93 -129 -201 -1 -132 47 -191 160 -198 35
-2 75 -1 89 2 l25 6 0 190 c0 189 0 190 -22 194 -54 11 -95 13 -123 7z"/>
<path d="M2044 579 c-56 -13 -79 -40 -79 -95 0 -76 62 -107 179 -90 l46 7 0
90 c0 87 -1 89 -24 89 -13 0 -36 2 -52 4 -16 3 -48 0 -70 -5z"/>
</g>
</svg>
